<?xml version="1.0" encoding="UTF-8" standalone="no"?>
<svg
   xmlns:dc="http://purl.org/dc/elements/1.1/"
   xmlns:cc="http://creativecommons.org/ns#"
   xmlns:rdf="http://www.w3.org/1999/02/22-rdf-syntax-ns#"
   xmlns:svg="http://www.w3.org/2000/svg"
   xmlns="http://www.w3.org/2000/svg"
   xmlns:sodipodi="http://sodipodi.sourceforge.net/DTD/sodipodi-0.dtd"
   xmlns:inkscape="http://www.inkscape.org/namespaces/inkscape"
   viewBox="0 0 128 128"
   id="svg2"
   version="1.1"
   inkscape:version="0.92.4 (5da689c313, 2019-01-14)"
   sodipodi:docname="removed_languages.svg"
   width="128"
   height="128">
  <metadata
     id="metadata38">
    <rdf:RDF>
      <cc:Work
         rdf:about="">
        <dc:format>image/svg+xml</dc:format>
        <dc:type
           rdf:resource="http://purl.org/dc/dcmitype/StillImage" />
        <dc:title></dc:title>
      </cc:Work>
    </rdf:RDF>
  </metadata>
  <sodipodi:namedview
     pagecolor="#ffffff"
     bordercolor="#666666"
     borderopacity="1"
     objecttolerance="10"
     gridtolerance="10"
     guidetolerance="10"
     inkscape:pageopacity="0"
     inkscape:pageshadow="2"
     inkscape:window-width="1440"
     inkscape:window-height="847"
     id="namedview36"
     showgrid="false"
     inkscape:zoom="4.9492188"
     inkscape:cx="44.73418"
     inkscape:cy="57.075723"
     inkscape:window-x="0"
     inkscape:window-y="25"
     inkscape:window-maximized="1"
     inkscape:current-layer="svg2" />
  <defs
     id="defs4">
    <linearGradient
       id="0"
       y1="546.92999"
       x2="0"
       y2="516.47998"
       gradientUnits="userSpaceOnUse">
      <stop
         stop-color="#187ced"
         id="stop7" />
      <stop
         offset="1"
         stop-color="#42d6fc"
         id="stop9" />
    </linearGradient>
    <linearGradient
       id="1"
       y1="29.504999"
       x2="0"
       y2="2.3199999"
       gradientUnits="userSpaceOnUse"
       gradientTransform="matrix(1.10376,0,0,1.10019,382.9,514.19)">
      <stop
         stop-color="#0164c2"
         id="stop12" />
      <stop
         offset="1"
         stop-color="#00a9f3"
         id="stop14" />
    </linearGradient>
  </defs>
  <g
     id="g18"
     transform="matrix(4.0718435,0,0,4.0745055,-1566.8422,-2102.5035)">
    <circle
       style="fill:url(#0);stroke:url(#0);stroke-width:1.42700005"
       id="circle20"
       r="14"
       cy="531.79999"
       cx="400.57001" />
    <path
       style="fill:url(#1)"
       inkscape:connector-curvature="0"
       id="path22"
       d="m 400.59,517.13 c -1.856,0 -3.623,0.353 -5.255,0.973 -0.119,0.109 -0.273,0.192 -0.395,0.182 -0.017,-0.002 -0.033,-0.012 -0.051,-0.019 -0.805,0.336 -1.568,0.747 -2.292,1.213 0.094,0.152 0.122,0.322 -0.071,0.404 -0.033,0.013 -0.442,0.055 -0.585,0.052 -2.058,1.491 -3.71,3.496 -4.765,5.837 0.017,-0.003 0.032,-1e-4 0.05,-0.011 0.16,-0.003 0.391,0.043 0.545,0.076 0.142,0.029 0.257,0.124 0.379,0.133 0.349,0.027 0.433,-0.244 0.717,-0.395 0.294,0.041 0.489,-0.05 0.754,-0.02 0.181,0.02 0.312,0.213 0.453,0.223 0.119,0.012 0.223,-0.111 0.338,-0.093 0.112,0.018 0.304,0.259 0.322,0.395 0.024,0.169 -0.125,0.321 -0.076,0.507 0.178,0.18 0.501,0.217 0.754,0.321 0.165,-0.136 0.022,-0.388 0,-0.584 -0.003,-0.087 0.012,-0.164 0,-0.244 -0.015,-0.135 -0.073,-0.259 -0.074,-0.375 -0.003,-0.535 0.433,-0.786 0.793,-0.997 0.156,-0.092 0.279,-0.253 0.414,-0.321 0.191,-0.095 0.333,-0.118 0.491,-0.206 0.286,-0.16 0.531,-0.288 0.754,-0.47 0.103,-0.243 10e-5,-0.568 0.019,-0.808 0.103,-0.063 0.192,0.027 0.302,0.019 0.172,-0.035 0.187,-0.278 0.285,-0.375 0.057,-0.056 0.212,-0.095 0.283,-0.15 0.172,-0.134 0.228,-0.337 0.378,-0.395 0.054,-0.022 0.178,-0.015 0.263,-0.038 0.112,-0.03 0.271,-0.161 0.453,-0.223 0.119,-0.041 0.39,-0.05 0.435,-0.094 0.056,-0.057 0,-0.216 0.019,-0.301 0.091,-0.425 0.733,-0.515 1.112,-0.657 0.266,-0.1 0.539,-0.284 0.831,-0.228 -0.057,0.202 -0.329,0.13 -0.283,0.375 0.064,0.34 0.52,-0.097 0.641,-0.148 0.23,-0.096 0.625,-0.156 0.927,-0.265 0.265,-0.096 0.74,-0.244 0.49,-0.546 -0.208,-0.012 -0.309,0.244 -0.49,0.321 -0.125,0.02 -0.101,-0.105 -0.208,-0.115 -0.101,-0.012 -0.159,0.093 -0.263,0.075 -0.104,-0.017 -0.25,-0.18 -0.266,-0.301 -0.041,-0.314 0.266,-0.443 0.397,-0.678 -0.087,-0.284 -0.48,-0.058 -0.719,-0.169 0.023,-0.169 0.198,-0.286 0.397,-0.318 0.162,-0.027 0.527,-0.013 0.624,0.072 0.056,0.048 0.004,0.166 0.095,0.245 0.096,0.087 0.214,0.077 0.339,0.058 0.044,-0.214 -0.28,-0.161 -0.244,-0.302 0.255,-0.166 0.669,-0.03 0.982,-0.076 0.18,-0.027 0.368,-0.153 0.527,-0.242 0.151,-0.086 0.348,-0.235 0.509,-0.095 0.043,0.154 -0.14,0.204 -0.226,0.281 -0.289,0.256 -0.586,0.549 -0.81,0.847 0.138,0.134 0.388,0.066 0.621,0.094 0.091,0.012 0.205,0.038 0.302,0.056 0.113,0.02 0.232,0.014 0.32,0.037 0.159,0.038 0.201,0.208 0.358,0.208 0.258,0 0.261,-0.279 0.115,-0.453 0.046,-0.177 0.119,-0.27 0.056,-0.394 -0.116,-0.232 -0.543,-0.012 -0.565,-0.301 -0.013,-0.188 0.157,-0.179 0.226,-0.319 -0.031,-0.362 0.298,-0.389 0.263,-0.713 -0.015,-0.136 -0.13,-0.138 -0.226,-0.265 -0.048,-0.062 -0.072,-0.183 -0.128,-0.236 -0.44,-0.038 -0.886,-0.063 -1.336,-0.063 z m -7.593,2.959 0.002,0 c 0.088,0.012 0.194,0.107 0.3,0.115 0.1,0.003 0.184,-0.056 0.246,-0.038 0.158,0.041 0.224,0.279 0.075,0.395 -0.123,0.015 -0.171,-0.054 -0.264,-0.037 -0.256,0.043 -0.355,0.544 -0.546,0.527 -0.181,-0.014 -0.278,-0.454 -0.095,-0.584 0.012,-0.114 -0.084,-0.132 -0.077,-0.245 0.055,-0.069 0.209,-0.144 0.359,-0.132 m -0.849,0.058 c 0.053,0.002 0.092,0.014 0.112,0.037 -0.025,0.2 -0.182,0.187 -0.338,0.281 -0.268,0.161 -0.423,0.407 -0.509,0.752 -0.025,0.1 -0.289,0.366 -0.417,0.339 -0.299,-0.063 0.083,-0.613 0.151,-0.696 0.076,-0.093 0.177,-0.174 0.266,-0.281 0.086,-0.104 0.142,-0.243 0.226,-0.301 0.091,-0.063 0.351,-0.138 0.509,-0.132 m 2.233,0.676 c 0.096,0.002 0.182,0.018 0.221,0.056 -0.062,0.248 -0.598,0.183 -0.795,0.093 0.012,-0.094 0.16,-0.12 0.283,-0.132 0.087,-0.003 0.195,-0.02 0.29,-0.017 m -1.221,0.458 c 0.064,-0.002 0.128,0.012 0.195,0.03 -0.174,0.145 -0.361,0.227 -0.66,0.321 -0.143,0.045 -0.391,0.101 -0.415,-0.059 -0.03,-0.196 0.21,-0.15 0.341,-0.168 0.165,-0.023 0.346,-0.118 0.539,-0.125 m 18.739,1.115 c -0.023,0.054 -0.038,0.106 -0.036,0.158 0.012,0.091 0.111,0.178 0.134,0.301 0.012,0.065 -0.031,0.206 0,0.265 0.091,0.176 0.329,0.05 0.499,0.059 -0.193,-0.265 -0.386,-0.531 -0.596,-0.782 m 0.964,1.293 c -0.027,0.13 -0.115,0.299 -0.187,0.407 -0.164,0.249 -0.388,0.261 -0.624,0.394 -0.197,0.111 -0.281,0.297 -0.397,0.49 -0.125,0.209 -0.202,0.335 -0.151,0.637 -0.169,0.333 -0.424,0.538 -0.773,0.696 -0.103,0.047 -0.244,0.064 -0.339,0.132 -0.075,0.054 -0.118,0.199 -0.226,0.319 -0.132,0.147 -0.271,0.209 -0.341,0.321 -0.054,0.087 -0.072,0.259 -0.132,0.375 -0.081,0.158 -0.252,0.235 -0.358,0.395 -0.048,0.074 -0.081,0.224 -0.134,0.321 -0.12,0.216 -0.324,0.372 -0.302,0.563 0.022,0.184 0.231,0.216 0.246,0.377 0.003,0.091 -0.06,0.146 -0.056,0.245 0.003,0.144 0.101,0.246 0.112,0.357 0.028,0.279 -0.095,0.391 -0.148,0.582 -0.025,0.091 -0.014,0.194 -0.038,0.265 -0.047,0.14 -0.242,0.266 -0.246,0.431 -0.002,0.117 0.121,0.212 0.131,0.377 0.003,0.114 -0.056,0.235 -0.036,0.339 0.04,0.205 0.407,0.443 0.566,0.602 0.213,0.213 0.493,0.377 0.585,0.602 0.077,0.19 0.077,0.438 0.226,0.582 0.11,0.106 0.293,0.172 0.434,0.282 0.132,0.103 0.275,0.192 0.415,0.301 0.23,0.179 0.577,0.536 0.943,0.509 0.191,-0.013 0.387,-0.169 0.604,-0.208 0.223,-0.039 0.512,-0.061 0.737,-0.037 0.172,0.017 0.35,0.12 0.529,0.112 0.189,-0.012 0.406,-0.151 0.621,-0.245 0.173,-0.075 0.385,-0.158 0.618,-0.219 0.107,-0.715 0.164,-1.448 0.164,-2.194 0,-3 -0.901,-5.787 -2.443,-8.107 m -24.338,4.929 c -0.313,0.017 -0.519,0.031 -0.697,0.112 -0.408,0.185 -0.329,0.735 -0.737,0.865 -0.141,0.045 -0.335,0.047 -0.49,0.075 -0.134,0.025 -0.297,0.097 -0.435,0.094 -0.038,0 -0.093,-0.029 -0.141,-0.044 -0.036,0.258 -0.066,0.519 -0.089,0.781 0.388,0.074 0.588,0.587 0.931,0.756 0.094,0.047 0.217,0.049 0.338,0.076 0.097,0.022 0.172,0.063 0.266,0.095 0.2,0.067 0.444,0.059 0.604,0.13 0.24,0.106 0.417,0.557 0.624,0.678 0.012,0.122 -0.024,0.285 0.019,0.375 0.097,0.132 0.236,0.103 0.397,0.189 0.193,0.104 0.252,0.371 0.434,0.453 0.063,0.028 0.221,0.024 0.32,0.055 0.25,0.075 0.332,0.364 0.546,0.301 0.141,-0.041 0.129,-0.185 0.152,-0.319 0.093,-0.1 0.194,-0.259 0.339,-0.262 0.234,-0.012 0.255,0.241 0.341,0.468 0.048,0.128 0.174,0.24 0.207,0.375 0.058,0.234 0.029,0.933 -0.021,1.073 -0.059,0.171 -0.292,0.244 -0.435,0.434 -0.067,0.089 -0.1,0.22 -0.151,0.282 -0.092,0.112 -0.23,0.141 -0.299,0.245 -0.039,0.058 -0.077,0.183 -0.115,0.262 -0.113,0.239 -0.265,0.409 -0.17,0.696 0.04,0.118 0.225,0.197 0.226,0.337 0,0.164 -0.349,0.31 -0.376,0.49 -0.021,0.134 0.108,0.372 0.151,0.546 0.031,0.131 0.28,0.213 0.358,0.301 0.132,0.148 0.238,0.358 0.359,0.544 0.239,0.366 0.427,0.813 0.66,1.167 0.123,0.186 0.296,0.353 0.378,0.546 0.042,0.097 0.036,0.213 0.074,0.301 0.135,0.303 0.73,0.62 1.038,0.771 0.144,0.069 0.303,0.094 0.435,0.168 0.2,0.111 0.596,0.41 0.697,0.584 0.09,0.157 0.146,0.539 0.19,0.789 0.059,0.33 0,0.584 0.019,0.941 0.012,0.193 0.074,0.388 0.076,0.582 0,0.068 -0.036,0.118 -0.039,0.188 0,0.011 0.004,0.024 0.004,0.035 1.853,0.836 3.907,1.312 6.08,1.312 0.393,0 0.781,-0.021 1.165,-0.051 0.017,-0.029 0.032,-0.059 0.054,-0.086 0.089,-0.116 0.167,-0.217 0.226,-0.319 0.056,-0.343 -0.137,-0.583 -0.056,-0.884 0.09,-0.338 0.558,-0.544 0.887,-0.696 0.113,-0.052 0.228,-0.137 0.32,-0.169 0.227,-0.079 0.511,-0.036 0.719,-0.112 0.354,-0.129 0.39,-0.507 0.565,-0.828 0.083,-0.152 0.191,-0.304 0.207,-0.412 0.014,-0.097 -0.036,-0.189 -0.021,-0.304 0.017,-0.114 0.119,-0.212 0.151,-0.337 0.041,-0.163 0.059,-0.402 0.059,-0.583 0,-0.149 -0.07,-0.28 -0.075,-0.414 -0.025,-0.488 0.177,-0.542 0.358,-0.808 0.091,-0.132 0.125,-0.282 0.188,-0.377 0.304,-0.452 0.831,-0.67 0.793,-1.354 -0.012,-0.226 -0.155,-0.737 -0.322,-0.809 -0.095,-0.041 -0.315,-0.003 -0.453,-0.056 -0.446,-0.166 -0.708,-0.717 -1.17,-0.752 -0.098,-0.012 -0.189,0.04 -0.3,0.038 -0.183,-0.012 -0.459,-0.128 -0.661,-0.15 -0.129,-0.013 -0.301,0.038 -0.378,0 -0.118,-0.057 -0.13,-0.274 -0.226,-0.338 -0.075,-0.053 -0.224,-0.07 -0.339,-0.115 -0.186,-0.071 -0.333,-0.154 -0.547,-0.169 -0.066,-0.003 -0.149,0.031 -0.226,0.02 -0.119,-0.02 -0.212,-0.16 -0.322,-0.226 -0.137,-0.083 -0.264,-0.123 -0.32,-0.242 0.124,-0.405 -0.218,-0.518 -0.302,-0.752 -0.04,-0.11 -0.022,-0.242 -0.056,-0.339 -0.05,-0.14 -0.188,-0.221 -0.341,-0.338 -0.273,-0.209 -0.515,-0.406 -0.905,-0.454 -0.172,-0.022 -0.342,0.052 -0.549,0.038 -0.22,-0.013 -0.495,-0.205 -0.66,-0.392 -0.16,-0.183 -0.237,-0.347 -0.377,-0.434 -0.132,-0.085 -0.307,-0.082 -0.397,-0.168 -0.04,-0.037 -0.033,-0.101 -0.076,-0.189 -0.066,-0.137 -0.178,-0.213 -0.095,-0.377 -0.15,-0.077 -0.154,0.143 -0.319,0.115 -0.147,-0.207 -0.271,-0.306 -0.604,-0.245 -0.152,0.028 -0.238,0.22 -0.415,0.225 -0.146,0.012 -0.26,-0.162 -0.453,-0.189 -0.145,-0.02 -0.31,0.039 -0.414,0.02 -0.161,-0.032 -0.211,-0.166 -0.358,-0.262 -0.108,-0.07 -0.317,-0.191 -0.378,-0.189 -0.19,0.012 -0.325,0.402 -0.586,0.264 -0.127,-0.161 0.207,-0.245 0.056,-0.395 -0.114,-0.114 -0.21,0.052 -0.302,0.115 -0.105,0.072 -0.203,0.143 -0.319,0.186 -0.259,0.096 -0.421,0.046 -0.624,0.15 -0.188,0.097 -0.196,0.259 -0.302,0.451 -0.087,0.158 -0.285,0.387 -0.415,0.397 -0.158,0.012 -0.309,-0.22 -0.453,-0.282 -0.432,-0.187 -0.641,0.166 -1,0.17 -0.333,0.012 -0.809,-0.536 -0.792,-0.848 0.003,-0.19 0.11,-0.479 0.132,-0.715 0.021,-0.187 0.149,-0.3 0.151,-0.471 0.003,-0.228 -0.304,-0.404 -0.453,-0.431 -0.352,-0.064 -0.842,0.141 -1.246,-0.02 -0.077,-0.127 0.091,-0.216 0.134,-0.339 0.025,-0.07 10e-5,-0.165 0.036,-0.242 0.044,-0.12 0.171,-0.213 0.227,-0.339 0.041,-0.097 0.053,-0.237 0.095,-0.357 0.05,-0.137 0.14,-0.225 0.151,-0.321 0.013,-0.127 -0.034,-0.273 -0.134,-0.357 z m 5.04,3.981 c 0.128,0.012 0.144,0.275 0.013,0.297 -0.141,0.022 -0.213,-0.221 -0.076,-0.284 0.023,-0.012 0.045,-0.012 0.063,-0.011 l 0,-0.002" />
  </g>
  <g
     id="g158"
     transform="translate(116.98816,4.0410418)">
    <rect
       id="rect3280-7"
       transform="rotate(135)"
       width="17.856115pt"
       height="3.3019445pt"
       x="63.022743"
       y="-2.6748104"
       style="fill:#e74c3c;fill-rule:evenodd" />
    <rect
       id="rect3282-5"
       transform="rotate(45)"
       width="17.520071pt"
       height="3.3652775pt"
       x="-10.338922"
       y="72.079514"
       style="fill:#e74c3c;fill-rule:evenodd" />
  </g>
</svg>
